<?xml version="1.0" encoding="utf-8"?>
<!-- Generator: Adobe Illustrator 23.0.1, SVG Export Plug-In . SVG Version: 6.00 Build 0)  -->
<svg version="1.1" id="Layer_1" xmlns="http://www.w3.org/2000/svg" xmlns:xlink="http://www.w3.org/1999/xlink" x="0px" y="0px"
	 viewBox="0 0 1920 1080" style="enable-background:new 0 0 1920 1080;" xml:space="preserve">
<style type="text/css">
	.st0{opacity:0.56;fill:none;stroke:#000000;stroke-width:6;stroke-miterlimit:10;}
	.st1{opacity:0.7;fill:none;stroke:#000000;stroke-width:6;stroke-miterlimit:10;}
	.st2{opacity:0.11;fill:none;stroke:#000000;stroke-width:6;stroke-miterlimit:10;}
	.st3{opacity:0.81;}
	.st4{opacity:0.2;}
	.st5{fill:none;stroke:#000000;stroke-width:6;stroke-miterlimit:10;}
</style>
<polygon class="st0" points="1015,430.3 861.6,519.5 707.1,430.3 860.5,341.1 "/>
<polygon class="st1" points="1015,430.3 1014.6,580 861.1,669.2 861.6,519.5 "/>
<polygon class="st2" points="861.6,519.5 861.1,669.2 706.7,580 707.1,430.3 "/>
<polygon class="st0" points="814.6,551.2 661.1,640.4 506.7,551.2 660.1,462.1 "/>
<polygon class="st1" points="814.6,551.2 814.1,700.9 660.7,790.1 661.1,640.4 "/>
<polygon class="st2" points="661.1,640.4 660.7,790.1 506.2,700.9 506.7,551.2 "/>
<polygon class="st0" points="814.6,263.1 661.1,352.3 506.7,263.1 660.1,173.9 "/>
<polygon class="st2" points="814.6,263.1 814.1,412.8 660.7,502 661.1,352.3 "/>
<polygon class="st2" points="661.1,352.3 660.7,502 506.2,412.8 506.7,263.1 "/>
<g class="st3">
	<path d="M946.2,824.7h-7.9l30.6-70.8h7l30.4,70.8h-8l-7.8-18.6h-36.6L946.2,824.7z M956.6,799.5h31.2l-15.6-37.6L956.6,799.5z"/>
	<path d="M1044.9,824.7h-7.2v-70.8h20.8c3.5,0,6.7,0.3,9.7,1c3,0.7,5.5,1.8,7.7,3.2s3.9,3.5,5.1,5.8c1.2,2.4,1.8,5.3,1.8,8.8
		c0,2.6-0.5,5-1.4,7.1c-0.9,2.1-2.2,4-3.8,5.5c-1.6,1.6-3.5,2.8-5.7,3.8c-2.2,0.9-4.6,1.5-7.2,1.8l20.7,33.7h-8.8l-19.6-33.1h-12
		V824.7z M1044.9,785.4h12.5c5.8,0,10.3-1,13.4-3.2c3.1-2.1,4.7-5.2,4.7-9.5c0-2.3-0.4-4.3-1.3-5.9c-0.9-1.6-2.1-2.9-3.6-3.9
		s-3.4-1.7-5.6-2.2c-2.2-0.5-4.6-0.7-7.3-0.7h-12.8V785.4z"/>
	<path d="M1178.2,813.2c-1.2,1.8-2.6,3.5-4.4,5.1c-1.7,1.6-3.7,3-5.9,4.2c-2.2,1.2-4.7,2.2-7.4,2.9c-2.7,0.7-5.7,1.1-8.9,1.1
		c-5.3,0-10.3-0.9-14.8-2.8c-4.5-1.9-8.4-4.5-11.7-7.8c-3.3-3.3-5.8-7.2-7.6-11.8c-1.8-4.5-2.8-9.5-2.8-14.9
		c0-5.4,0.9-10.4,2.8-14.9c1.9-4.5,4.5-8.5,7.8-11.8c3.3-3.3,7.2-5.9,11.7-7.8c4.5-1.9,9.4-2.8,14.6-2.8c2.6,0,5.1,0.3,7.6,0.8
		c2.5,0.5,4.9,1.3,7.1,2.3c2.2,1,4.2,2.2,6,3.5c1.8,1.4,3.3,2.9,4.5,4.7l-6,4.4c-0.7-1.1-1.7-2.3-3-3.4c-1.2-1.1-2.7-2.1-4.4-3
		c-1.7-0.9-3.5-1.6-5.4-2.1c-2-0.5-4.1-0.8-6.3-0.8c-4.6,0-8.7,0.8-12.4,2.5c-3.6,1.7-6.7,3.9-9.2,6.7c-2.5,2.8-4.5,6.1-5.8,9.8
		c-1.3,3.7-2,7.6-2,11.8c0,4.1,0.7,8,2,11.8c1.4,3.7,3.3,7,5.9,9.8c2.5,2.8,5.6,5.1,9.2,6.7c3.6,1.7,7.7,2.5,12.2,2.5
		c4.1,0,7.9-0.8,11.6-2.5c3.7-1.7,6.7-4.3,9.2-8L1178.2,813.2z"/>
	<path d="M1211.6,753.9h7.2v30.7h38.6v-30.7h7.2v70.8h-7.2v-33.5h-38.6v33.5h-7.2V753.9z"/>
	<path d="M1311.6,824.7h-7.2v-70.8h7.2V824.7z"/>
	<path d="M1374.1,824.7h-7.2v-64.4h-23.7v-6.4h54.6v6.4h-23.7V824.7z"/>
	<path d="M1436.6,818.3h37.9v6.4h-45.1v-70.8h43.9v6.4h-36.7v24.3h34.3v6.4h-34.3V818.3z"/>
	<path d="M1569.2,813.2c-1.2,1.8-2.6,3.5-4.3,5.1c-1.7,1.6-3.7,3-5.9,4.2c-2.2,1.2-4.7,2.2-7.4,2.9c-2.7,0.7-5.6,1.1-8.9,1.1
		c-5.3,0-10.3-0.9-14.8-2.8c-4.5-1.9-8.4-4.5-11.7-7.8c-3.3-3.3-5.8-7.2-7.6-11.8c-1.8-4.5-2.8-9.5-2.8-14.9
		c0-5.4,0.9-10.4,2.8-14.9c1.9-4.5,4.5-8.5,7.8-11.8c3.3-3.3,7.2-5.9,11.7-7.8c4.5-1.9,9.4-2.8,14.6-2.8c2.6,0,5.2,0.3,7.7,0.8
		c2.5,0.5,4.8,1.3,7.1,2.3c2.2,1,4.2,2.2,6,3.5c1.8,1.4,3.3,2.9,4.5,4.7l-6,4.4c-0.7-1.1-1.7-2.3-3-3.4c-1.2-1.1-2.7-2.1-4.3-3
		c-1.7-0.9-3.5-1.6-5.4-2.1c-2-0.5-4.1-0.8-6.4-0.8c-4.6,0-8.7,0.8-12.4,2.5c-3.6,1.7-6.7,3.9-9.2,6.7c-2.5,2.8-4.5,6.1-5.8,9.8
		c-1.3,3.7-2,7.6-2,11.8c0,4.1,0.7,8,2,11.8c1.4,3.7,3.3,7,5.9,9.8c2.5,2.8,5.6,5.1,9.2,6.7c3.6,1.7,7.7,2.5,12.2,2.5
		c4.1,0,7.9-0.8,11.6-2.5c3.7-1.7,6.7-4.3,9.2-8L1569.2,813.2z"/>
	<path d="M1624.7,824.7h-7.2v-64.4h-23.7v-6.4h54.6v6.4h-23.7V824.7z"/>
</g>
<g class="st4">
	<g>
		<line class="st5" x1="1333" y1="671" x2="1333" y2="164.2"/>
		<g>
			<path d="M1333,128c6.3,17,17.1,38.2,28.5,51.3L1333,169l-28.5,10.3C1315.9,166.2,1326.7,145,1333,128z"/>
		</g>
	</g>
</g>
<g class="st4">
	<g>
		<line class="st5" x1="785.8" y1="925.7" x2="139" y2="546"/>
		<g>
			<path d="M817,944c-11.5-14.1-24.3-34.1-29.8-50.6l-5.5,29.8l-23.3,19.4C775.4,939.4,799.1,940.8,817,944z"/>
		</g>
	</g>
</g>
<g class="st4">
	<g>
		<line class="st5" x1="1461" y1="377" x2="446.7" y2="978"/>
		<g>
			<path d="M415.5,996.5c11.4-14.1,24.1-34.2,29.6-50.7l5.7,29.8l23.4,19.3C457.1,991.8,433.4,993.2,415.5,996.5z"/>
		</g>
	</g>
</g>
<g>
</g>
<g>
</g>
<g>
</g>
<g>
</g>
<g>
</g>
<g>
</g>
<g>
</g>
<g>
</g>
<g>
</g>
<g>
</g>
<g>
</g>
<g>
</g>
<g>
</g>
<g>
</g>
<g>
</g>
<g>
</g>
</svg>
